{
  "errno": 0,
  "errmsg": "成功",
  "data": {
    "page": 2,
    "pageSize": 1,
    "total": 2,
    "pages": 2,
    "list": [
      {
        "id": 72,
        "name": "范敏祺",
        "imageUrl": null,
        "detail": null,
        "gmtCreate": "2020-11-28T17:42:21",
        "gmtModified": "2020-11-28T17:42:21"
      }
    ]
  }
}